{
    "@context": "http://schema.org",
    "@graph": [{
        "@type": "Person",
        "name": "Axel Haustant",
        "sameAs": [
            "http://github.com/noirbizarre",
            "http://twitter.com/noirbizarre",
            "http://fr.linkedin.com/in/axelhaustant",
            "http://www.viadeo.com/fr/profile/axel.haustant"
        ],
        "jobTitle": "Techlead, Full stack developer",
        "address": [
            {
                "@type": "PostalAddress",
                "addressLocality": "Paris, France"
            },
            {
                "@type": "PostalAddress",
                "addressLocality": "Melun, France"
            }
        ],
        "email": "axel(at)apihackers.com",
        "telephone": "+33781149707",
        "alumniOf": {
            "@type": "CollegeOrUniversity",
            "name": "INSA Lyon",
            "sameAs": [
                "https://www.insa-lyon.fr/",
                "https://www.facebook.com/INSAdeLyon/",
                "https://fr.wikipedia.org/wiki/Institut_national_des_sciences_appliqu%C3%A9es_de_Lyon"
            ]
        }
    }, {
        "@type": "WebSite",
        "name": "Axel Haustant",
        "alternateName": "My Resume",
        "url": "https://axel.haustant.fr"
    }]
}
